{
    "name": "Player",
    "maps": [
        {
            "name": "Player",
            "id": "c6e46ceb-005b-4062-8015-dd43530b12e8",
            "actions": [
                {
                    "name": "Move",
                    "type": "Value",
                    "id": "344cc04c-2252-456e-b494-dd9b7ace5704",
                    "expectedControlType": "Vector2",
                    "processors": "",
                    "interactions": "",
                    "initialStateCheck": true
                },
                {
                    "name": "Look",
                    "type": "Value",
                    "id": "0bcd7899-b09d-432e-8a92-cf2b57b21f8a",
                    "expectedControlType": "Vector2",
                    "processors": "",
                    "interactions": "",
                    "initialStateCheck": true
                },
                {
                    "name": "Fire",
                    "type": "Button",
                    "id": "ba6a737d-bc21-447f-9517-e94da69f900c",
                    "expectedControlType": "Button",
                    "processors": "",
                    "interactions": "",
                    "initialStateCheck": false
                },
                {
                    "name": "Run",
                    "type": "Value",
                    "id": "6e3280b1-161f-4cf6-ade3-6e8eacb84b8b",
                    "expectedControlType": "",
                    "processors": "",
                    "interactions": "",
                    "initialStateCheck": true
                },
                {
                    "name": "Jump",
                    "type": "Button",
                    "id": "1e0e652e-d323-402f-9b75-160ee4021751",
                    "expectedControlType": "Button",
                    "processors": "",
                    "interactions": "",
                    "initialStateCheck": false
                },
                {
                    "name": "Aiming",
                    "type": "Button",
                    "id": "ede9eb7a-706c-407a-bd40-d43b4bb0c744",
                    "expectedControlType": "Button",
                    "processors": "",
                    "interactions": "",
                    "initialStateCheck": false
                },
                {
                    "name": "NextWeapon",
                    "type": "Button",
                    "id": "d4dd915c-34e5-4e34-ab8b-60beffa9eb82",
                    "expectedControlType": "Button",
                    "processors": "",
                    "interactions": "",
                    "initialStateCheck": false
                },
                {
                    "name": "PreviousWeapon",
                    "type": "Button",
                    "id": "a3680b3a-4e53-4848-aa3b-c69aa81c2c68",
                    "expectedControlType": "Button",
                    "processors": "",
                    "interactions": "",
                    "initialStateCheck": false
                }
            ],
            "bindings": [
                {
                    "name": "",
                    "id": "665d154f-e8d5-42df-8dec-213603c0911d",
                    "path": "<Gamepad>/leftStick",
                    "interactions": "",
                    "processors": "",
                    "groups": "Keyboard and mouse",
                    "action": "Move",
                    "isComposite": false,
                    "isPartOfComposite": false
                },
                {
                    "name": "WASD",
                    "id": "e93cadc7-6793-4bd1-b92f-0f66ec41827d",
                    "path": "Dpad",
                    "interactions": "",
                    "processors": "",
                    "groups": "",
                    "action": "Move",
                    "isComposite": true,
                    "isPartOfComposite": false
                },
                {
                    "name": "up",
                    "id": "36aab016-b632-457d-b128-c4f2d28bb69d",
                    "path": "<Keyboard>/w",
                    "interactions": "",
                    "processors": "",
                    "groups": "Keyboard and mouse",
                    "action": "Move",
                    "isComposite": false,
                    "isPartOfComposite": true
                },
                {
                    "name": "up",
                    "id": "aa2fb3e7-fec1-472d-b5ba-5364c561743d",
                    "path": "<Keyboard>/upArrow",
                    "interactions": "",
                    "processors": "",
                    "groups": "Keyboard and mouse",
                    "action": "Move",
                    "isComposite": false,
                    "isPartOfComposite": true
                },
                {
                    "name": "down",
                    "id": "f7e72ead-f3df-4da7-9e48-d0adc52dc1ab",
                    "path": "<Keyboard>/s",
                    "interactions": "",
                    "processors": "",
                    "groups": "Keyboard and mouse",
                    "action": "Move",
                    "isComposite": false,
                    "isPartOfComposite": true
                },
                {
                    "name": "down",
                    "id": "683477cc-89c7-403c-ad56-d1bc9e2eb86b",
                    "path": "<Keyboard>/downArrow",
                    "interactions": "",
                    "processors": "",
                    "groups": "Keyboard and mouse",
                    "action": "Move",
                    "isComposite": false,
                    "isPartOfComposite": true
                },
                {
                    "name": "left",
                    "id": "77adcd85-01da-4e6c-bea4-f50c893b3817",
                    "path": "<Keyboard>/a",
                    "interactions": "",
                    "processors": "",
                    "groups": "Keyboard and mouse",
                    "action": "Move",
                    "isComposite": false,
                    "isPartOfComposite": true
                },
                {
                    "name": "left",
                    "id": "2dc908a5-7b59-4b99-8016-f811651cc2d3",
                    "path": "<Keyboard>/leftArrow",
                    "interactions": "",
                    "processors": "",
                    "groups": "Keyboard and mouse",
                    "action": "Move",
                    "isComposite": false,
                    "isPartOfComposite": true
                },
                {
                    "name": "right",
                    "id": "1938502e-9d1d-4ff7-833e-74d7ec4cf052",
                    "path": "<Keyboard>/d",
                    "interactions": "",
                    "processors": "",
                    "groups": "Keyboard and mouse",
                    "action": "Move",
                    "isComposite": false,
                    "isPartOfComposite": true
                },
                {
                    "name": "right",
                    "id": "69f3f5d5-ccf3-43b5-b2bb-490d1f191dbe",
                    "path": "<Keyboard>/rightArrow",
                    "interactions": "",
                    "processors": "",
                    "groups": "Keyboard and mouse",
                    "action": "Move",
                    "isComposite": false,
                    "isPartOfComposite": true
                },
                {
                    "name": "",
                    "id": "963c71d9-9481-482f-89d9-b0b9e73185d9",
                    "path": "<XRController>/{Primary2DAxis}",
                    "interactions": "",
                    "processors": "",
                    "groups": "Keyboard and mouse",
                    "action": "Move",
                    "isComposite": false,
                    "isPartOfComposite": false
                },
                {
                    "name": "",
                    "id": "2baac38a-ee62-4658-ae7a-6424154902e9",
                    "path": "<Joystick>/stick",
                    "interactions": "",
                    "processors": "",
                    "groups": "Keyboard and mouse",
                    "action": "Move",
                    "isComposite": false,
                    "isPartOfComposite": false
                },
                {
                    "name": "",
                    "id": "2b15f1c0-8044-4dc8-975c-7561f7d73279",
                    "path": "<Gamepad>/rightStick",
                    "interactions": "",
                    "processors": "",
                    "groups": "Keyboard and mouse",
                    "action": "Look",
                    "isComposite": false,
                    "isPartOfComposite": false
                },
                {
                    "name": "",
                    "id": "40471936-aab7-432e-b6c1-0349ea8b894b",
                    "path": "<Pointer>/delta",
                    "interactions": "",
                    "processors": "InvertVector2(invertX=false)",
                    "groups": "Keyboard and mouse",
                    "action": "Look",
                    "isComposite": false,
                    "isPartOfComposite": false
                },
                {
                    "name": "",
                    "id": "9f76172e-0c2e-4451-9d06-f4d5fbadd974",
                    "path": "<Joystick>/{Hatswitch}",
                    "interactions": "",
                    "processors": "",
                    "groups": "Keyboard and mouse",
                    "action": "Look",
                    "isComposite": false,
                    "isPartOfComposite": false
                },
                {
                    "name": "",
                    "id": "9e3e3524-c601-43a3-9681-3153af6568ea",
                    "path": "<Gamepad>/rightTrigger",
                    "interactions": "",
                    "processors": "",
                    "groups": "Keyboard and mouse",
                    "action": "Fire",
                    "isComposite": false,
                    "isPartOfComposite": false
                },
                {
                    "name": "",
                    "id": "d366afa1-1d2b-4cd2-9786-739dab28fa90",
                    "path": "<Mouse>/leftButton",
                    "interactions": "Press(behavior=2)",
                    "processors": "",
                    "groups": "Keyboard and mouse",
                    "action": "Fire",
                    "isComposite": false,
                    "isPartOfComposite": false
                },
                {
                    "name": "",
                    "id": "079aad65-5074-48e1-a744-0f9f7e5493df",
                    "path": "<Touchscreen>/primaryTouch/tap",
                    "interactions": "",
                    "processors": "",
                    "groups": "Keyboard and mouse",
                    "action": "Fire",
                    "isComposite": false,
                    "isPartOfComposite": false
                },
                {
                    "name": "",
                    "id": "b9f4f5b0-ef2a-4329-a7ee-e313e9b3a891",
                    "path": "<Joystick>/trigger",
                    "interactions": "",
                    "processors": "",
                    "groups": "Keyboard and mouse",
                    "action": "Fire",
                    "isComposite": false,
                    "isPartOfComposite": false
                },
                {
                    "name": "",
                    "id": "e7c8fb65-cd5e-4d0a-a7d5-5c4ecdaf925f",
                    "path": "<XRController>/{PrimaryAction}",
                    "interactions": "",
                    "processors": "",
                    "groups": "Keyboard and mouse",
                    "action": "Fire",
                    "isComposite": false,
                    "isPartOfComposite": false
                },
                {
                    "name": "",
                    "id": "2ce0e195-6f85-4e82-bd3a-41d75d547669",
                    "path": "<Keyboard>/shift",
                    "interactions": "Press(behavior=2)",
                    "processors": "Scale(factor=2),Clamp(min=1,max=2)",
                    "groups": "Keyboard and mouse",
                    "action": "Run",
                    "isComposite": false,
                    "isPartOfComposite": false
                },
                {
                    "name": "",
                    "id": "f7bd9b32-d00e-47a6-b3c3-49ab27226c48",
                    "path": "<Keyboard>/space",
                    "interactions": "",
                    "processors": "",
                    "groups": "Keyboard and mouse",
                    "action": "Jump",
                    "isComposite": false,
                    "isPartOfComposite": false
                },
                {
                    "name": "",
                    "id": "1ddd2fa9-e52e-4905-8c90-33d8049c094e",
                    "path": "<Mouse>/rightButton",
                    "interactions": "Press(behavior=2)",
                    "processors": "",
                    "groups": "Keyboard and mouse",
                    "action": "Aiming",
                    "isComposite": false,
                    "isPartOfComposite": false
                },
                {
                    "name": "",
                    "id": "c8c93ee4-bf24-4462-a351-2d7d04875830",
                    "path": "<Keyboard>/e",
                    "interactions": "",
                    "processors": "",
                    "groups": "Keyboard and mouse",
                    "action": "NextWeapon",
                    "isComposite": false,
                    "isPartOfComposite": false
                },
                {
                    "name": "",
                    "id": "585b0826-1e72-4438-84c2-b0222491fc69",
                    "path": "<Keyboard>/q",
                    "interactions": "",
                    "processors": "",
                    "groups": "Keyboard and mouse",
                    "action": "PreviousWeapon",
                    "isComposite": false,
                    "isPartOfComposite": false
                }
            ]
        }
    ],
    "controlSchemes": [
        {
            "name": "Keyboard and mouse",
            "bindingGroup": "Keyboard and mouse",
            "devices": [
                {
                    "devicePath": "<Keyboard>",
                    "isOptional": false,
                    "isOR": false
                },
                {
                    "devicePath": "<Mouse>",
                    "isOptional": false,
                    "isOR": false
                }
            ]
        }
    ]
}